{
    "KPlugin": {
        "Authors": [
            {
                "Email": "albertvaka@gmail.com",
                "Name": "Albert Vaca",
                "Name[ar]": "Albert Vaca",
                "Name[ast]": "Albert Vaca",
                "Name[az]": "Albert Vaca",
                "Name[ca@valencia]": "Albert Vaca",
                "Name[ca]": "Albert Vaca",
                "Name[cs]": "Albert Vaca",
                "Name[da]": "Albert Vaca",
                "Name[de]": "Albert Vaca",
                "Name[el]": "Albert Vaca",
                "Name[en_GB]": "Albert Vaca",
                "Name[es]": "Albert Vaca",
                "Name[et]": "Albert Vaca",
                "Name[eu]": "Albert Vaca",
                "Name[fi]": "Albert Vaca",
                "Name[fr]": "Albert Vaca",
                "Name[gl]": "Albert Vaca",
                "Name[hu]": "Albert Vaca",
                "Name[ia]": "Albert Vaca",
                "Name[id]": "Albert Vaca",
                "Name[it]": "Albert Vaca",
                "Name[ko]": "Albert Vaca",
                "Name[lt]": "Albert Vaca",
                "Name[nl]": "Albert Vaca",
                "Name[nn]": "Albert Vaca",
                "Name[pl]": "Albert Vaca",
                "Name[pt]": "Albert Vaca",
                "Name[pt_BR]": "Albert Vaca",
                "Name[ro]": "Albert Vaca",
                "Name[ru]": "Albert Vaca",
                "Name[sk]": "Albert Vaca",
                "Name[sl]": "Albert Vaca",
                "Name[sr@ijekavian]": "Алберт Вака Синтора",
                "Name[sr@ijekavianlatin]": "Albert Vaka Sintora",
                "Name[sr@latin]": "Albert Vaka Sintora",
                "Name[sr]": "Алберт Вака Синтора",
                "Name[sv]": "Albert Vaca",
                "Name[tr]": "Albert Vaca",
                "Name[uk]": "Albert Vaca",
                "Name[x-test]": "xxAlbert Vacaxx",
                "Name[zh_CN]": "Albert Vaca",
                "Name[zh_TW]": "Albert Vaca"
            },
            {
                "Email": "david@davidedmundson.co.uk",
                "Name": "David Edmundson",
                "Name[ar]": "David Edmundson",
                "Name[ast]": "David Edmundson",
                "Name[az]": "David Edmundson",
                "Name[ca@valencia]": "David Edmundson",
                "Name[ca]": "David Edmundson",
                "Name[cs]": "David Edmundson",
                "Name[da]": "David Edmundson",
                "Name[de]": "David Edmundson",
                "Name[el]": "David Edmundson",
                "Name[en_GB]": "David Edmundson",
                "Name[es]": "David Edmundson",
                "Name[et]": "David Edmundson",
                "Name[eu]": "David Edmundson",
                "Name[fi]": "David Edmundson",
                "Name[fr]": "David Edmundson",
                "Name[gl]": "David Edmundson",
                "Name[hu]": "David Edmundson",
                "Name[ia]": "David Edmundson",
                "Name[id]": "David Edmundson",
                "Name[it]": "David Edmundson",
                "Name[ko]": "David Edmundson",
                "Name[lt]": "David Edmundson",
                "Name[nl]": "David Edmundson",
                "Name[nn]": "David Edmundson",
                "Name[pl]": "David Edmundson",
                "Name[pt]": "David Edmundson",
                "Name[pt_BR]": "David Edmundson",
                "Name[ro]": "David Edmundson",
                "Name[ru]": "David Edmundson",
                "Name[sk]": "David Edmundson",
                "Name[sl]": "David Edmundson",
                "Name[sr@ijekavian]": "Дејвид Едмундсон",
                "Name[sr@ijekavianlatin]": "Dejvid Edmundson",
                "Name[sr@latin]": "Dejvid Edmundson",
                "Name[sr]": "Дејвид Едмундсон",
                "Name[sv]": "David Edmundson",
                "Name[tr]": "David Edmundson",
                "Name[uk]": "David Edmundson",
                "Name[x-test]": "xxDavid Edmundsonxx",
                "Name[zh_CN]": "David Edmundson",
                "Name[zh_TW]": "David Edmundson"
            }
        ],
        "Description": "Execute console commands remotely",
        "Description[ar]": "نفّذ أوامر طرفيّة عن بعد",
        "Description[ast]": "Executa remotamente comandos de la consola",
        "Description[az]": "Terminal əmrlərini uzaqdan icra etmək",
        "Description[ca@valencia]": "Executa ordres de la consola de forma remota",
        "Description[ca]": "Executa ordres de la consola de forma remota",
        "Description[cs]": "Spouštět konzolové příkazy vzdáleně",
        "Description[da]": "Kør konsolkommandoer udefra",
        "Description[de]": "Entfernte Konsolenbefehle ausführen",
        "Description[el]": "Απομακρυσμένη εκτέλεση εντολών του τερματικού",
        "Description[en_GB]": "Execute console commands remotely",
        "Description[es]": "Ejecute órdenes de consola remotamente",
        "Description[et]": "Konsoolikäskude kaugkäivitamine",
        "Description[eu]": "Exekutatu kontsolako komandoak urrunetik",
        "Description[fi]": "Suorita konsolikomentoja etänä",
        "Description[fr]": "Exécute des commandes console à distance",
        "Description[gl]": "Executar ordes de consola remotamente",
        "Description[hu]": "Konzolparancsok végrehajtása távolról",
        "Description[ia]": "Executa commandos de consol remotemente",
        "Description[id]": "Eksekusikan perintah konsole secara jarak jauh",
        "Description[it]": "Esegue i comandi della console da remoto",
        "Description[ja]": "外部からコンソールコマンドを実行",
        "Description[ko]": "원격으로 콘솔 명령 실행",
        "Description[lt]": "Vykdyti pulto komandas nuotoliniu būdu",
        "Description[nl]": "Commando's in de terminal op afstand laten uitvoeren",
        "Description[nn]": "Køyr konsollkommandoar på eininga",
        "Description[pl]": "Wykonuje polecenie konsoli na tym urządzeniu z innego urządzenia",
        "Description[pt]": "Executar de forma remota comandos da consola",
        "Description[pt_BR]": "Executa comandos do console remotamente",
        "Description[ro]": "Execută comenzi de consolă la distanță",
        "Description[ru]": "Удалённое выполнение консольных команд",
        "Description[sk]": "Vzdialené spúšťanie príkazov terminálu",
        "Description[sl]": "Izvajaj ukaze konzole na daljavo",
        "Description[sr@ijekavian]": "Даљински извршава наредбе у конзоли",
        "Description[sr@ijekavianlatin]": "Daljinski izvršava naredbe u konzoli",
        "Description[sr@latin]": "Daljinski izvršava naredbe u konzoli",
        "Description[sr]": "Даљински извршава наредбе у конзоли",
        "Description[sv]": "Kör terminalkommandon på distans",
        "Description[tr]": "Konsol komutlarını uzaktan çalıştır",
        "Description[uk]": "Віддалене виконання консольних команд",
        "Description[x-test]": "xxExecute console commands remotelyxx",
        "Description[zh_CN]": "远程执行控制台命令",
        "Description[zh_TW]": "遠程執行控制台命令",
        "EnabledByDefault": true,
        "Icon": "system-run",
        "Id": "kdeconnect_runcommand",
        "License": "GPL",
        "Name": "Run commands",
        "Name[ar]": "شغّل أوامر",
        "Name[ast]": "Execución de comandos",
        "Name[az]": "Əmrləri başlatmaq",
        "Name[ca@valencia]": "Executa ordres",
        "Name[ca]": "Executa ordres",
        "Name[cs]": "Spustit příkazy",
        "Name[da]": "Kør kommandoer",
        "Name[de]": "Befehle ausführen",
        "Name[el]": "Εκτέλεση εντολών",
        "Name[en_GB]": "Run commands",
        "Name[es]": "Ejecutar órdenes",
        "Name[et]": "Käskude käivitamine",
        "Name[eu]": "Exekutatu komandoak",
        "Name[fi]": "Suorita komentoja",
        "Name[fr]": "Exécute des commandes",
        "Name[gl]": "Executar ordes",
        "Name[ia]": "Exeque commandos",
        "Name[id]": "Run commands",
        "Name[it]": "Esegui comandi",
        "Name[ja]": "コマンドを実行",
        "Name[ko]": "명령 실행",
        "Name[lt]": "Vykdyti komandas",
        "Name[nl]": "Commando's uitvoeren",
        "Name[nn]": "Køyr kommandoar",
        "Name[pl]": "Wykonywanie poleceń",
        "Name[pt]": "Executar comandos",
        "Name[pt_BR]": "Executar comandos",
        "Name[ro]": "Execută comenzi",
        "Name[ru]": "Выполнение команд",
        "Name[sk]": "Spustiť príkazy",
        "Name[sl]": "Zaženi ukaze",
        "Name[sr@ijekavian]": "Изврши наредбе",
        "Name[sr@ijekavianlatin]": "Izvrši naredbe",
        "Name[sr@latin]": "Izvrši naredbe",
        "Name[sr]": "Изврши наредбе",
        "Name[sv]": "Kör kommandon",
        "Name[tg]": "Иҷро кардани фармонҳо",
        "Name[tr]": "Komut çalıştır",
        "Name[uk]": "Виконання команд",
        "Name[x-test]": "xxRun commandsxx",
        "Name[zh_CN]": "执行命令",
        "Name[zh_TW]": "執行命令",
        "ServiceTypes": [
            "KdeConnect/Plugin"
        ],
        "Version": "0.1",
        "Website": "https://albertvaka.wordpress.com"
    },
    "X-KdeConnect-OutgoingPacketType": [
        "kdeconnect.runcommand"
    ],
    "X-KdeConnect-SupportedPacketType": [
        "kdeconnect.runcommand.request"
    ]
}
