{
    "KPlugin": {
        "Authors": [
            {
                "Email": "nicolas.fella@gmx.de",
                "Name": "Nicolas Fella",
                "Name[ast]": "Nicolas Fella",
                "Name[az]": "Nicolas Fella",
                "Name[ca@valencia]": "Nicolas Fella",
                "Name[ca]": "Nicolas Fella",
                "Name[cs]": "Nicolas Fella",
                "Name[da]": "Nicolas Fella",
                "Name[de]": "Nicolas Fella",
                "Name[el]": "Nicolas Fella",
                "Name[en_GB]": "Nicolas Fella",
                "Name[es]": "Nicolas Fella",
                "Name[et]": "Nicolas Fella",
                "Name[eu]": "Nicolas Fella",
                "Name[fi]": "Nicolas Fella",
                "Name[fr]": "Nicolas Fella",
                "Name[gl]": "Nicolas Fella",
                "Name[hu]": "Nicolas Fella",
                "Name[ia]": "Nicolas Fella",
                "Name[id]": "Nicolas Fella",
                "Name[it]": "Nicolas Fella",
                "Name[ko]": "Nicolas Fella",
                "Name[lt]": "Nicolas Fella",
                "Name[nl]": "Nicolas Fella",
                "Name[nn]": "Nicolas Fella",
                "Name[pl]": "Nicolas Fella",
                "Name[pt]": "Nicolas Fella",
                "Name[pt_BR]": "Nicolas Fella",
                "Name[ro]": "Nicolas Fella",
                "Name[ru]": "Nicolas Fella",
                "Name[sk]": "Nicolas Fella",
                "Name[sl]": "Nicolas Fella",
                "Name[sv]": "Nicolas Fella",
                "Name[tr]": "Nicolas Fella",
                "Name[uk]": "Nicolas Fella",
                "Name[x-test]": "xxNicolas Fellaxx",
                "Name[zh_CN]": "Nicolas Fella",
                "Name[zh_TW]": "Nicolas Fella"
            }
        ],
        "Description": "Control the volume of the connected device",
        "Description[ast]": "Controla'l volume del preséu conectáu",
        "Description[az]": "Qoşulmuş cihazın səs səviyyəsini idarə etmək",
        "Description[ca@valencia]": "Controla el volum del dispositiu connectat",
        "Description[ca]": "Controla el volum del dispositiu connectat",
        "Description[cs]": "Ovládejte hlasitost připojeného zařízení",
        "Description[da]": "Kontrollér lydstyrken på den tilsluttede enhed",
        "Description[de]": "Steuert die Lautstärke eines verbundenen Geräts",
        "Description[el]": "Έλεγχος του τόμου της συνδεδεμένης συσκευής",
        "Description[en_GB]": "Control the volume of the connected device",
        "Description[es]": "Controle el volumen del dispositivo conectado",
        "Description[et]": "Ühendatud seadme helitugevuse juhtimine",
        "Description[eu]": "Kontrolatu konektatutako gailuaren bolumena",
        "Description[fi]": "Säädä kytketyn laitteen äänenvoimakkuutta",
        "Description[fr]": "Contrôler le volume du périphérique connecté",
        "Description[gl]": "Controlar o volume do dispositivo conectado",
        "Description[hu]": "A kapcsolódott eszközök hangerejének vezérlése",
        "Description[ia]": "Controla le volumine del dispositivo connectite",
        "Description[id]": "Kontrol volume dari perangkat yang terkoneksi",
        "Description[it]": "Controlla il volume del dispositivo connesso",
        "Description[ko]": "연결된 장치 음량 제어",
        "Description[lt]": "Valdyti prijungto įrenginio garsumą",
        "Description[nl]": "Bestuur het volume van het verbonden apparaat",
        "Description[nn]": "Juster lydstyrken til ekstern eining",
        "Description[pl]": "Steruje głośnością innego urządzenia z tego urządzenia",
        "Description[pt]": "Controle o volume do dispositivo ligado",
        "Description[pt_BR]": "Controle o volume do dispositivo conectado",
        "Description[ro]": "Controlează volumul dispozitivului conectat",
        "Description[ru]": "Управление громкостью звука подключённого устройства",
        "Description[sk]": "Ovládanie hlasitosti pripojeného zariadenia",
        "Description[sl]": "Nadzoruj glasnost povezane naprave",
        "Description[sv]": "Kontrollera volymen på ansluten apparat",
        "Description[tr]": "Bağlı cihazın ses seviyesini kontrol edin",
        "Description[uk]": "Керування томом сховища даних на з'єднаному пристрої",
        "Description[x-test]": "xxControl the volume of the connected devicexx",
        "Description[zh_CN]": "控制连接设备的音量",
        "Description[zh_TW]": "控制連線裝置的音量",
        "EnabledByDefault": true,
        "Icon": "player-volume",
        "Id": "kdeconnect_remotesystemvolume",
        "License": "GPL",
        "Name": "Remote system volume",
        "Name[az]": "Uzaq sistemin səs səviyyəsi",
        "Name[ca@valencia]": "Volum del sistema remot",
        "Name[ca]": "Volum del sistema remot",
        "Name[cs]": "Hlasitost vzdáleného systému",
        "Name[da]": "Lydstyrke på eksternt filsystem",
        "Name[de]": "Lautstärke des entfernen Systems",
        "Name[el]": "Απομακρυσμένος τόμος συστήματος",
        "Name[en_GB]": "Remote system volume",
        "Name[es]": "Volumen del sistema remoto",
        "Name[et]": "Kaugsüsteemi helitugevus",
        "Name[eu]": "Urruneko sistemaren bolumena",
        "Name[fi]": "Etäjärjestelmän äänenvoimakkuus",
        "Name[fr]": "Volume du système distant",
        "Name[gl]": "Volume de sistema remoto",
        "Name[ia]": "Volumine de systema remote",
        "Name[id]": "Remote system volume",
        "Name[it]": "Volume del sistema remoto",
        "Name[ja]": "リモートシステムの音量",
        "Name[ko]": "원격 시스템 음량",
        "Name[lt]": "Nuotolinės sistemos garsumas",
        "Name[nl]": "Systeemvolume op afstand",
        "Name[nn]": "Ekstern lydstyrke",
        "Name[pl]": "Głośność na innym urządzeniu",
        "Name[pt]": "Volume do sistema remoto",
        "Name[pt_BR]": "Volume do sistema remoto",
        "Name[ro]": "Volum sistem distant",
        "Name[ru]": "Громкость звука удалённой системы",
        "Name[sk]": "Hlasitosť vzdialeného systému",
        "Name[sl]": "Glasnost oddaljenega sistema",
        "Name[sv]": "Fjärrsystemvolym",
        "Name[tr]": "Uzak sistem hacmi",
        "Name[uk]": "Віддалений системний том",
        "Name[x-test]": "xxRemote system volumexx",
        "Name[zh_CN]": "远程系统音量",
        "Name[zh_TW]": "遠端系統音量",
        "ServiceTypes": [
            "KdeConnect/Plugin"
        ],
        "Version": "0.1",
        "Website": "https://nicolasfella.wordpress.com"
    },
    "X-KdeConnect-OutgoingPacketType": [
        "kdeconnect.systemvolume.request"
    ],
    "X-KdeConnect-SupportedPacketType": [
        "kdeconnect.systemvolume"
    ]
}
